\relax 
\bibstyle{IEEEtranN}
\citation{lynen2013robust}
\citation{lynen2013robust}
\citation{bloesch2015robust}
\citation{bloesch2017iterated}
\citation{Burri25012016}
\citation{umeyama1991least}
\citation{umeyama1991least}
\citation{de2000mahalanobis}
\@writefile{toc}{\contentsline {section}{\numberline {I}Introduction}{1}}
\newlabel{1@xvr}{{}{1}}
\newlabel{1@vr}{{}{1}}
\newlabel{2@xvr}{{}{1}}
\newlabel{2@vr}{{}{1}}
\newlabel{3@xvr}{{}{1}}
\newlabel{3@vr}{{}{1}}
\newlabel{4@xvr}{{}{1}}
\newlabel{4@vr}{{}{1}}
\newlabel{5@xvr}{{}{1}}
\newlabel{5@vr}{{}{1}}
\@writefile{toc}{\contentsline {section}{\numberline {II}Methods}{1}}
\newlabel{sec:methods}{{II}{1}}
\@writefile{toc}{\contentsline {subsection}{\numberline {\unhbox \voidb@x \hbox {II-A}}extrinsic sensor calibration}{1}}
\newlabel{sec:extrinisic_cali}{{\unhbox \voidb@x \hbox {II-A}}{1}}
\@writefile{toc}{\contentsline {subsection}{\numberline {\unhbox \voidb@x \hbox {II-B}}outlier rejection}{1}}
\newlabel{sec:outlierrejection}{{\unhbox \voidb@x \hbox {II-B}}{1}}
\@writefile{loa}{\contentsline {algorithm}{\numberline {1}{\ignorespaces Stable Initialization}}{2}}
\newlabel{alg:stable_init}{{1}{2}}
\newlabel{6@xvr}{{}{2}}
\newlabel{6@vr}{{}{2}}
\@writefile{toc}{\contentsline {subsection}{\numberline {\unhbox \voidb@x \hbox {II-C}}noise estimation}{2}}
\newlabel{sec:noise_estimation}{{\unhbox \voidb@x \hbox {II-C}}{2}}
\newlabel{7@xvr}{{}{2}}
\newlabel{7@vr}{{}{2}}
\@writefile{toc}{\contentsline {subsection}{\numberline {\unhbox \voidb@x \hbox {II-D}}sensor recovery}{2}}
\newlabel{sec:sensor_recovery}{{\unhbox \voidb@x \hbox {II-D}}{2}}
\citation{Burri25012016}
\@writefile{toc}{\contentsline {section}{\numberline {III}Experiments}{3}}
\newlabel{sec:expermintalsetup}{{III}{3}}
\@writefile{toc}{\contentsline {subsection}{\numberline {\unhbox \voidb@x \hbox {III-A}}Evaluation Framework}{3}}
\newlabel{sec:eval_framework}{{\unhbox \voidb@x \hbox {III-A}}{3}}
\newlabel{8@xvr}{{}{3}}
\newlabel{8@vr}{{}{3}}
\newlabel{9@xvr}{{}{3}}
\newlabel{9@vr}{{}{3}}
\@writefile{lof}{\contentsline {figure}{\numberline {1}{\ignorespaces Overview of the evaluation framework. Green refers to inputs, blue to ROVIO and red to MSF. Gray boxes show additional parts that are only for testing reasons and not necessary for the system to work. They are implemented in python.}}{3}}
\newlabel{fig:eval_framework}{{1}{3}}
\@writefile{toc}{\contentsline {subsection}{\numberline {\unhbox \voidb@x \hbox {III-B}}Results}{3}}
\newlabel{10@xvr}{{}{3}}
\newlabel{10@vr}{{}{3}}
\newlabel{11@xvr}{{}{3}}
\newlabel{11@vr}{{}{3}}
\newlabel{fig:init_x}{{2a}{4}}
\newlabel{sub@fig:init_x}{{(a)}{a}}
\newlabel{fig:init_y}{{2b}{4}}
\newlabel{sub@fig:init_y}{{(b)}{b}}
\newlabel{fig:init_z}{{2c}{4}}
\newlabel{sub@fig:init_z}{{(c)}{c}}
\@writefile{lof}{\contentsline {figure}{\numberline {2}{\ignorespaces Comparison of the two initialization procedures when the drone frame was rotated with respect to the GPS frame. The black line is the vicon estimate and taken as ground truth. The three subplots show the three coordinates. The mean error is the average distance of any datapoint to the groundtruth.}}{4}}
\@writefile{lof}{\contentsline {subfigure}{\numberline{(a)}{\ignorespaces {}}}{4}}
\@writefile{lof}{\contentsline {subfigure}{\numberline{(b)}{\ignorespaces {}}}{4}}
\@writefile{lof}{\contentsline {subfigure}{\numberline{(c)}{\ignorespaces {}}}{4}}
\newlabel{fig:compare_init}{{2}{4}}
\newlabel{12@xvr}{{}{4}}
\newlabel{12@vr}{{}{4}}
\newlabel{fig:comparison_x}{{3a}{4}}
\newlabel{sub@fig:comparison_x}{{(a)}{a}}
\newlabel{fig:comparison_y}{{3b}{4}}
\newlabel{sub@fig:comparison_y}{{(b)}{b}}
\newlabel{fig:comparison_z}{{3c}{4}}
\newlabel{sub@fig:comparison_z}{{(c)}{c}}
\@writefile{lof}{\contentsline {figure}{\numberline {3}{\ignorespaces Comparison of different combination of features. The drone frame and the GPS frame were aligned and the simple initialization was used in all cases. The black line is the vicon estimate and taken as ground truth. The three subplots show the three coordinates. The mean error is the average distance of any datapoint to the groundtruth. }}{4}}
\@writefile{lof}{\contentsline {subfigure}{\numberline{(a)}{\ignorespaces {}}}{4}}
\@writefile{lof}{\contentsline {subfigure}{\numberline{(b)}{\ignorespaces {}}}{4}}
\@writefile{lof}{\contentsline {subfigure}{\numberline{(c)}{\ignorespaces {}}}{4}}
\newlabel{fig:compare_results}{{3}{4}}
\bibdata{robust_UAV_state_estimation}
\bibcite{lynen2013robust}{{1}{2013}{{Lynen et~al.}}{{Lynen, Achtelik, Weiss, Chli, and Siegwart}}}
\bibcite{bloesch2015robust}{{2}{2015}{{Bloesch et~al.}}{{Bloesch, Omari, Hutter, and Siegwart}}}
\bibcite{bloesch2017iterated}{{3}{2017}{{Bloesch et~al.}}{{Bloesch, Burri, Omari, Hutter, and Siegwart}}}
\bibcite{Burri25012016}{{4}{2016}{{Burri et~al.}}{{Burri, Nikolic, Gohl, Schneider, Rehder, Omari, Achtelik, and Siegwart}}}
\bibcite{umeyama1991least}{{5}{1991}{{Umeyama}}{{}}}
\bibcite{de2000mahalanobis}{{6}{2000}{{De~Maesschalck et~al.}}{{De~Maesschalck, Jouan-Rimbaud, and Massart}}}
\@writefile{toc}{\contentsline {section}{\numberline {IV}Conclusion}{5}}
