\relax 
\bibstyle{IEEEtranN}
\citation{Vinyals2017}
\citation{6907237}
\citation{Liu2015}
\citation{7961772}
\citation{MV3D}
\citation{8103116}
\citation{Agrawal2017a}
\citation{Agrawal2017a}
\citation{Garcia-Garcia2017}
\citation{Garcia-Garcia2017}
\citation{Agrawal2017a}
\citation{Garcia-Garcia2017}
\citation{Vinyals2017,Vinyals2015,Krause2016,Socher}
\citation{Vinyals2017}
\citation{Zhou2015}
\citation{Liu2015}
\citation{Liu2015}
\citation{Liu2015}
\citation{Liu2015}
\citation{Teney2017}
\citation{Li2017}
\@writefile{toc}{\contentsline {section}{\numberline {I}Introduction}{1}}
\newlabel{1@xvr}{{}{1}}
\newlabel{1@vr}{{}{1}}
\newlabel{2@xvr}{{}{1}}
\newlabel{2@vr}{{}{1}}
\@writefile{toc}{\contentsline {section}{\numberline {II}Background}{1}}
\@writefile{lof}{\contentsline {figure}{\numberline {1}{\ignorespaces Answering the question using the image requires combining both the visual concepts embedded within an image, and the interpretation of question text. Examples taken from\nobreakspace  {}\citep  {Agrawal2017a}. }}{1}}
\newlabel{fig:vqaIntro}{{1}{1}}
\newlabel{3@xvr}{{}{1}}
\newlabel{3@vr}{{}{1}}
\@writefile{toc}{\contentsline {subsection}{\numberline {\unhbox \voidb@x \hbox {II-A}}Comparison of fusion approaches}{1}}
\citation{Li2017}
\citation{Li2017}
\citation{Wang2016}
\citation{DBLP:journals/corr/HeZRS15}
\citation{7298594}
\citation{Wang2016,MV3D}
\citation{Li2017}
\citation{Zhou2015}
\citation{Zhou2015}
\newlabel{fig:early_fusion}{{2a}{2}}
\newlabel{sub@fig:early_fusion}{{(a)}{a}}
\newlabel{fig:late_fusion}{{2b}{2}}
\newlabel{sub@fig:late_fusion}{{(b)}{b}}
\newlabel{fig:modout_fusion}{{2c}{2}}
\newlabel{sub@fig:modout_fusion}{{(c)}{c}}
\newlabel{fig:deep_fusion}{{2d}{2}}
\newlabel{sub@fig:deep_fusion}{{(d)}{d}}
\@writefile{lof}{\contentsline {figure}{\numberline {2}{\ignorespaces Different fusion approaches.}}{2}}
\@writefile{lof}{\contentsline {subfigure}{\numberline{(a)}{\ignorespaces {}}}{2}}
\@writefile{lof}{\contentsline {subfigure}{\numberline{(b)}{\ignorespaces {}}}{2}}
\@writefile{lof}{\contentsline {subfigure}{\numberline{(c)}{\ignorespaces {}}}{2}}
\@writefile{lof}{\contentsline {subfigure}{\numberline{(d)}{\ignorespaces {}}}{2}}
\newlabel{fig:compare_fusion_methods}{{2}{2}}
\@writefile{toc}{\contentsline {section}{\numberline {III}Empirical comparison of fusion approaches}{2}}
\newlabel{sec:experimentalsetup}{{III}{2}}
\@writefile{toc}{\contentsline {subsection}{\numberline {\unhbox \voidb@x \hbox {III-A}}Implementation}{2}}
\citation{leonhardcluster}
\citation{Zhou2015}
\citation{MV3D}
\@writefile{toc}{\contentsline {subsubsection}{\numberline {\unhbox \voidb@x \hbox {III-A}1}Experiments}{3}}
\@writefile{toc}{\contentsline {subsubsection}{\numberline {\unhbox \voidb@x \hbox {III-A}2}Reference Model}{3}}
\@writefile{toc}{\contentsline {subsubsection}{\numberline {\unhbox \voidb@x \hbox {III-A}3}Fusion Models}{3}}
\@writefile{toc}{\contentsline {paragraph}{\numberline {\unhbox \voidb@x \hbox {III-A}3a}Early Fusion}{3}}
\@writefile{toc}{\contentsline {paragraph}{\numberline {\unhbox \voidb@x \hbox {III-A}3b}Late Fusion}{3}}
\@writefile{toc}{\contentsline {paragraph}{\numberline {\unhbox \voidb@x \hbox {III-A}3c}Modout Fusion}{3}}
\newlabel{4@xvr}{{}{3}}
\newlabel{4@vr}{{}{3}}
\@writefile{lof}{\contentsline {figure}{\numberline {3}{\ignorespaces Development of training error for Deep Fusion model.}}{3}}
\newlabel{fig:dfte}{{3}{3}}
\newlabel{5@xvr}{{}{3}}
\newlabel{5@vr}{{}{3}}
\@writefile{toc}{\contentsline {paragraph}{\numberline {\unhbox \voidb@x \hbox {III-A}3d}Deep Fusion}{3}}
\newlabel{6@xvr}{{}{3}}
\newlabel{6@vr}{{}{3}}
\@writefile{toc}{\contentsline {subsection}{\numberline {\unhbox \voidb@x \hbox {III-B}}Results}{3}}
\@writefile{toc}{\contentsline {paragraph}{\numberline {\unhbox \voidb@x \hbox {III-B}0a}Early Fusion}{3}}
\citation{Marcus}
\citation{Marcus}
\@writefile{lof}{\contentsline {figure}{\numberline {4}{\ignorespaces Development of training error for the early fusion model.}}{4}}
\newlabel{fig:efte}{{4}{4}}
\@writefile{toc}{\contentsline {paragraph}{\numberline {\unhbox \voidb@x \hbox {III-B}0b}Late Fusion}{4}}
\@writefile{toc}{\contentsline {paragraph}{\numberline {\unhbox \voidb@x \hbox {III-B}0c}Modout Fusion}{4}}
\@writefile{toc}{\contentsline {paragraph}{\numberline {\unhbox \voidb@x \hbox {III-B}0d}Comparison}{4}}
\@writefile{lof}{\contentsline {figure}{\numberline {5}{\ignorespaces Development of training error for Modout Fusion model.}}{4}}
\newlabel{fig:mfte}{{5}{4}}
\@writefile{lof}{\contentsline {figure}{\numberline {6}{\ignorespaces Development of training error for the late fusion model.}}{4}}
\newlabel{fig:lfte}{{6}{4}}
\@writefile{toc}{\contentsline {section}{\numberline {IV}Discussion}{4}}
\citation{Zhou2015}
\bibdata{DL_visualquestionanswering}
\bibcite{Vinyals2017}{{1}{2017}{{Vinyals et~al.}}{{Vinyals, Toshev, Bengio, and Erhan}}}
\bibcite{6907237}{{2}{2014}{{Cadena and Ko\v {s}eck\'{a}}}{{}}}
\bibcite{Liu2015}{{3}{2015}{{Liu et~al.}}{{Liu, Rabinovich, and Berg}}}
\bibcite{7961772}{{4}{2017{}}{{Li et~al.}}{{Li, Neverova, Wolf, and Taylor}}}
\bibcite{MV3D}{{5}{2016}{{Chen et~al.}}{{Chen, Ma, Wan, Li, and Xia}}}
\bibcite{8103116}{{6}{2017}{{Ramachandram and Taylor}}{{}}}
\bibcite{Agrawal2017a}{{7}{2017}{{Agrawal et~al.}}{{Agrawal, Lu, Antol, Mitchell, Zitnick, Parikh, and Batra}}}
\bibcite{Garcia-Garcia2017}{{8}{2017}{{Garcia-Garcia et~al.}}{{Garcia-Garcia, Orts-Escolano, Oprea, Villena-Martinez, and Garcia-Rodriguez}}}
\bibcite{Vinyals2015}{{9}{2015}{{Vinyals et~al.}}{{Vinyals, Toshev, Bengio, and Erhan}}}
\bibcite{Krause2016}{{10}{2016}{{Krause et~al.}}{{Krause, Johnson, Krishna, and Fei-Fei}}}
\bibcite{Socher}{{11}{2014}{{Socher et~al.}}{{Socher, Karpathy, Le, Manning, and Ng}}}
\bibcite{Zhou2015}{{12}{2015}{{Zhou et~al.}}{{Zhou, Tian, Sukhbaatar, Szlam, and Fergus}}}
\bibcite{Teney2017}{{13}{2017}{{Teney et~al.}}{{Teney, Anderson, He, and van~den Hengel}}}
\bibcite{Li2017}{{14}{2017{}}{{Li et~al.}}{{Li, Neverova, Wolf, and Taylor}}}
\bibcite{Wang2016}{{15}{2016}{{Wang et~al.}}{{Wang, Wei, Zhang, and Zeng}}}
\bibcite{DBLP:journals/corr/HeZRS15}{{16}{2015}{{He et~al.}}{{He, Zhang, Ren, and Sun}}}
\bibcite{7298594}{{17}{2015}{{Szegedy et~al.}}{{Szegedy, Liu, Jia, Sermanet, Reed, Anguelov, Erhan, Vanhoucke, and Rabinovich}}}
\@writefile{toc}{\contentsline {section}{\numberline {V}Conclusion}{5}}
\bibcite{leonhardcluster}{{18}{}{{leo}}{{}}}
\bibcite{Marcus}{{19}{}{{Marcus}}{{}}}
